# Blender MTL File: 'None'
# Material Count: 12

newmtl Canon
Ns 224.999983
Ka 0.530680 0.530680 0.530680
Kd 0.454773 0.454773 0.454773
Ks 0.500000 0.500000 0.500000
Ke 0.000000 0.000000 0.000000
Ni 1.450000
d 1.000000
illum 3

newmtl Dark_Metal
Ns 360.244187
Ka 1.000000 1.000000 1.000000
Kd 0.047980 0.047980 0.047980
Ks 0.500000 0.500000 0.500000
Ke 0.000000 0.000000 0.000000
Ni 1.450000
d 1.000000
illum 2

newmtl Fire
Ns 323.999982
Ka 1.000000 1.000000 1.000000
Kd 0.800000 0.800000 0.800000
Ks 0.500000 0.500000 0.500000
Ke 0.000000 0.000000 0.000000
Ni 1.450000
d 1.000000
illum 2

newmtl Glass
Ns 543.284214
Ka 1.000000 1.000000 1.000000
Kd 0.020707 0.701983 0.800000
Ks 0.500000 0.500000 0.500000
Ke 0.000000 0.000000 0.000000
Ni 1.450000
d 1.000000
illum 2

newmtl Ligth_1
Ns 323.999982
Ka 1.000000 1.000000 1.000000
Kd 0.800000 0.800000 0.800000
Ks 0.500000 0.500000 0.500000
Ke 0.000000 0.000000 0.000000
Ni 1.450000
d 1.000000
illum 2

newmtl Main
Ns 224.999983
Ka 1.000000 1.000000 1.000000
Kd 0.800000 0.800000 0.800000
Ks 0.500000 0.500000 0.500000
Ke 0.000000 0.000000 0.000000
Ni 1.450000
d 1.000000
illum 2

newmtl Main_Canon
Ns 224.999983
Ka 0.509121 0.509121 0.509121
Kd 0.198236 0.198236 0.198236
Ks 0.500000 0.500000 0.500000
Ke 0.000000 0.000000 0.000000
Ni 1.450000
d 1.000000
illum 3

newmtl Metal
Ns 343.447586
Ka 0.280265 0.280265 0.280265
Kd 0.324733 0.324733 0.324733
Ks 0.500000 0.500000 0.500000
Ke 0.000000 0.000000 0.000000
Ni 1.450000
d 1.000000
illum 3

newmtl Turbine
Ns 224.999983
Ka 0.543947 0.543947 0.543947
Kd 0.006643 0.012139 0.040874
Ks 0.500000 0.500000 0.500000
Ke 0.000000 0.000000 0.000000
Ni 1.450000
d 1.000000
illum 3

newmtl Wings_1
Ns 226.495045
Ka 0.696517 0.696517 0.696517
Kd 0.800000 0.800000 0.800000
Ks 0.500000 0.500000 0.500000
Ke 0.000000 0.000000 0.000000
Ni 1.450000
d 1.000000
illum 3

newmtl Wings_2
Ns 323.462928
Ka 0.439469 0.439469 0.439469
Kd 0.017642 0.141263 0.799103
Ks 0.500000 0.500000 0.500000
Ke 0.000000 0.000000 0.000000
Ni 1.450000
d 1.000000
illum 3

newmtl black
Ns 900.000002
Ka 1.000000 1.000000 1.000000
Kd 0.000000 0.000000 0.000000
Ks 0.500000 0.500000 0.500000
Ke 0.000000 0.000000 0.000000
Ni 1.450000
d 1.000000
illum 2
